Test ENDPOINT with a space
DROP TABLE IF EXISTS `ORDER_STATUS`;
CREATE TABLE `ORDER_STATUS` (
 `ORDER_STATUS_ID` INTEGER PRIMARY KEY START 0 ENDPOINT '" "',
 `NAME` CHARACTER(20) NOT NULL GLOBAL "^ORD(100.01,keys(""ORDER_STATUS_ID""),0)" PIECE 1,
 `SHORT_NAME` CHARACTER(4) GLOBAL "^ORD(100.01,keys(""ORDER_STATUS_ID""),0)" PIECE 2,
 `ABBREVIATION` CHARACTER(3) GLOBAL "^ORD(100.01,keys(""ORDER_STATUS_ID""),.1)" EXTRACT "$E($G(^ORD(100.01,keys(""ORDER_STATUS_ID""),.1)),1,245)",
 `MASTER_ENTRY_FOR_VUID` CHARACTER(3) GLOBAL "^ORD(100.01,keys(""ORDER_STATUS_ID""),""VUID"")" PIECE 2,
 `VUID` CHARACTER(20) GLOBAL "^ORD(100.01,keys(""ORDER_STATUS_ID""),""VUID"")" PIECE 1
)
GLOBAL "^ORD(100.01,keys(""ORDER_STATUS_ID""))"
DELIM "^";
SELECT * FROM `ORDER_STATUS`;
ORDER_STATUS_ID|NAME|SHORT_NAME|ABBREVIATION|MASTER_ENTRY_FOR_VUID|VUID
1|DISCONTINUED|dc|dc|1|4500704
2|COMPLETE|comp|c|1|4501088
3|HOLD|hold|h|1|4500752
4|FLAGGED|flag|"?"|1|4501095
5|PENDING|pend|p|1|4501114
6|ACTIVE|actv|a|1|4500659
7|EXPIRED|exp|e|1|4500725
8|SCHEDULED|schd|s|1|4501117
9|PARTIAL RESULTS|part|pr|1|4501113
10|DELAYED|dlay|dly|1|4501091
11|UNRELEASED|unr|u|1|4501124
12|DISCONTINUED/EDIT|dc/e|dce|1|4501094
13|CANCELLED|canc|x|1|4501011
14|LAPSED|laps|l|1|4501099
15|RENEWED|rnew|rn|1|4500873
99|NO STATUS|none|'|1|4501102
(16 rows)

Test ENDPOINT with a $CHAR(0) (should be same as space)
DROP TABLE IF EXISTS `ORDER_STATUS`;
CREATE TABLE `ORDER_STATUS` (
 `ORDER_STATUS_ID` INTEGER PRIMARY KEY START 0 ENDPOINT '$CHAR(0)',
 `NAME` CHARACTER(20) NOT NULL GLOBAL "^ORD(100.01,keys(""ORDER_STATUS_ID""),0)" PIECE 1,
 `SHORT_NAME` CHARACTER(4) GLOBAL "^ORD(100.01,keys(""ORDER_STATUS_ID""),0)" PIECE 2,
 `ABBREVIATION` CHARACTER(3) GLOBAL "^ORD(100.01,keys(""ORDER_STATUS_ID""),.1)" EXTRACT "$E($G(^ORD(100.01,keys(""ORDER_STATUS_ID""),.1)),1,245)",
 `MASTER_ENTRY_FOR_VUID` CHARACTER(3) GLOBAL "^ORD(100.01,keys(""ORDER_STATUS_ID""),""VUID"")" PIECE 2,
 `VUID` CHARACTER(20) GLOBAL "^ORD(100.01,keys(""ORDER_STATUS_ID""),""VUID"")" PIECE 1
)
GLOBAL "^ORD(100.01,keys(""ORDER_STATUS_ID""))"
DELIM "^";
SELECT * FROM `ORDER_STATUS`;
ORDER_STATUS_ID|NAME|SHORT_NAME|ABBREVIATION|MASTER_ENTRY_FOR_VUID|VUID
1|DISCONTINUED|dc|dc|1|4500704
2|COMPLETE|comp|c|1|4501088
3|HOLD|hold|h|1|4500752
4|FLAGGED|flag|"?"|1|4501095
5|PENDING|pend|p|1|4501114
6|ACTIVE|actv|a|1|4500659
7|EXPIRED|exp|e|1|4500725
8|SCHEDULED|schd|s|1|4501117
9|PARTIAL RESULTS|part|pr|1|4501113
10|DELAYED|dlay|dly|1|4501091
11|UNRELEASED|unr|u|1|4501124
12|DISCONTINUED/EDIT|dc/e|dce|1|4501094
13|CANCELLED|canc|x|1|4501011
14|LAPSED|laps|l|1|4501099
15|RENEWED|rnew|rn|1|4500873
99|NO STATUS|none|'|1|4501102
(16 rows)

Add a couple of records at $CHAR(27), and test with space again
DROP TABLE IF EXISTS `ORDER_STATUS`;
CREATE TABLE `ORDER_STATUS` (
 `ORDER_STATUS_ID` INTEGER PRIMARY KEY START 0 ENDPOINT '" "',
 `NAME` CHARACTER(20) NOT NULL GLOBAL "^ORD(100.01,keys(""ORDER_STATUS_ID""),0)" PIECE 1,
 `SHORT_NAME` CHARACTER(4) GLOBAL "^ORD(100.01,keys(""ORDER_STATUS_ID""),0)" PIECE 2,
 `ABBREVIATION` CHARACTER(3) GLOBAL "^ORD(100.01,keys(""ORDER_STATUS_ID""),.1)" EXTRACT "$E($G(^ORD(100.01,keys(""ORDER_STATUS_ID""),.1)),1,245)",
 `MASTER_ENTRY_FOR_VUID` CHARACTER(3) GLOBAL "^ORD(100.01,keys(""ORDER_STATUS_ID""),""VUID"")" PIECE 2,
 `VUID` CHARACTER(20) GLOBAL "^ORD(100.01,keys(""ORDER_STATUS_ID""),""VUID"")" PIECE 1
)
GLOBAL "^ORD(100.01,keys(""ORDER_STATUS_ID""))"
DELIM "^";
SELECT * FROM `ORDER_STATUS`;
ORDER_STATUS_ID|NAME|SHORT_NAME|ABBREVIATION|MASTER_ENTRY_FOR_VUID|VUID
1|DISCONTINUED|dc|dc|1|4500704
2|COMPLETE|comp|c|1|4501088
3|HOLD|hold|h|1|4500752
4|FLAGGED|flag|"?"|1|4501095
5|PENDING|pend|p|1|4501114
6|ACTIVE|actv|a|1|4500659
7|EXPIRED|exp|e|1|4500725
8|SCHEDULED|schd|s|1|4501117
9|PARTIAL RESULTS|part|pr|1|4501113
10|DELAYED|dlay|dly|1|4501091
11|UNRELEASED|unr|u|1|4501124
12|DISCONTINUED/EDIT|dc/e|dce|1|4501094
13|CANCELLED|canc|x|1|4501011
14|LAPSED|laps|l|1|4501099
15|RENEWED|rnew|rn|1|4500873
99|NO STATUS|none|'|1|4501102
|ESC STATUS 1|esc1|||
[PQ|ESC STATUS 2|esc2|||
(18 rows)

Add a couple of records at "A", and test ENDPOINT with a "A"
DROP TABLE IF EXISTS `ORDER_STATUS`;
CREATE TABLE `ORDER_STATUS` (
 `ORDER_STATUS_ID` INTEGER PRIMARY KEY START 0 ENDPOINT '"A"',
 `NAME` CHARACTER(20) NOT NULL GLOBAL "^ORD(100.01,keys(""ORDER_STATUS_ID""),0)" PIECE 1,
 `SHORT_NAME` CHARACTER(4) GLOBAL "^ORD(100.01,keys(""ORDER_STATUS_ID""),0)" PIECE 2,
 `ABBREVIATION` CHARACTER(3) GLOBAL "^ORD(100.01,keys(""ORDER_STATUS_ID""),.1)" EXTRACT "$E($G(^ORD(100.01,keys(""ORDER_STATUS_ID""),.1)),1,245)",
 `MASTER_ENTRY_FOR_VUID` CHARACTER(3) GLOBAL "^ORD(100.01,keys(""ORDER_STATUS_ID""),""VUID"")" PIECE 2,
 `VUID` CHARACTER(20) GLOBAL "^ORD(100.01,keys(""ORDER_STATUS_ID""),""VUID"")" PIECE 1
)
GLOBAL "^ORD(100.01,keys(""ORDER_STATUS_ID""))"
DELIM "^";
SELECT * FROM `ORDER_STATUS`;
ORDER_STATUS_ID|NAME|SHORT_NAME|ABBREVIATION|MASTER_ENTRY_FOR_VUID|VUID
1|DISCONTINUED|dc|dc|1|4500704
2|COMPLETE|comp|c|1|4501088
3|HOLD|hold|h|1|4500752
4|FLAGGED|flag|"?"|1|4501095
5|PENDING|pend|p|1|4501114
6|ACTIVE|actv|a|1|4500659
7|EXPIRED|exp|e|1|4500725
8|SCHEDULED|schd|s|1|4501117
9|PARTIAL RESULTS|part|pr|1|4501113
10|DELAYED|dlay|dly|1|4501091
11|UNRELEASED|unr|u|1|4501124
12|DISCONTINUED/EDIT|dc/e|dce|1|4501094
13|CANCELLED|canc|x|1|4501011
14|LAPSED|laps|l|1|4501099
15|RENEWED|rnew|rn|1|4500873
99|NO STATUS|none|'|1|4501102
A|A STATUS|a|||
(17 rows)

Test ENDPOINT with a ""
DROP TABLE IF EXISTS `ORDER_STATUS`;
CREATE TABLE `ORDER_STATUS` (
 `ORDER_STATUS_ID` INTEGER PRIMARY KEY START 0 ENDPOINT '""',
 `NAME` CHARACTER(20) NOT NULL GLOBAL "^ORD(100.01,keys(""ORDER_STATUS_ID""),0)" PIECE 1,
 `SHORT_NAME` CHARACTER(4) GLOBAL "^ORD(100.01,keys(""ORDER_STATUS_ID""),0)" PIECE 2,
 `ABBREVIATION` CHARACTER(3) GLOBAL "^ORD(100.01,keys(""ORDER_STATUS_ID""),.1)" EXTRACT "$E($G(^ORD(100.01,keys(""ORDER_STATUS_ID""),.1)),1,245)",
 `MASTER_ENTRY_FOR_VUID` CHARACTER(3) GLOBAL "^ORD(100.01,keys(""ORDER_STATUS_ID""),""VUID"")" PIECE 2,
 `VUID` CHARACTER(20) GLOBAL "^ORD(100.01,keys(""ORDER_STATUS_ID""),""VUID"")" PIECE 1
)
GLOBAL "^ORD(100.01,keys(""ORDER_STATUS_ID""))"
DELIM "^";
SELECT * FROM `ORDER_STATUS`;
ORDER_STATUS_ID|NAME|SHORT_NAME|ABBREVIATION|MASTER_ENTRY_FOR_VUID|VUID
(0 rows)

Test ENDPOINT with a 3
DROP TABLE IF EXISTS `ORDER_STATUS`;
CREATE TABLE `ORDER_STATUS` (
 `ORDER_STATUS_ID` INTEGER PRIMARY KEY START 0 ENDPOINT 3,
 `NAME` CHARACTER(20) NOT NULL GLOBAL "^ORD(100.01,keys(""ORDER_STATUS_ID""),0)" PIECE 1,
 `SHORT_NAME` CHARACTER(4) GLOBAL "^ORD(100.01,keys(""ORDER_STATUS_ID""),0)" PIECE 2,
 `ABBREVIATION` CHARACTER(3) GLOBAL "^ORD(100.01,keys(""ORDER_STATUS_ID""),.1)" EXTRACT "$E($G(^ORD(100.01,keys(""ORDER_STATUS_ID""),.1)),1,245)",
 `MASTER_ENTRY_FOR_VUID` CHARACTER(3) GLOBAL "^ORD(100.01,keys(""ORDER_STATUS_ID""),""VUID"")" PIECE 2,
 `VUID` CHARACTER(20) GLOBAL "^ORD(100.01,keys(""ORDER_STATUS_ID""),""VUID"")" PIECE 1
)
GLOBAL "^ORD(100.01,keys(""ORDER_STATUS_ID""))"
DELIM "^";
SELECT * FROM `ORDER_STATUS`;
ORDER_STATUS_ID|NAME|SHORT_NAME|ABBREVIATION|MASTER_ENTRY_FOR_VUID|VUID
1|DISCONTINUED|dc|dc|1|4500704
2|COMPLETE|comp|c|1|4501088
3|HOLD|hold|h|1|4500752
(3 rows)

Test END and ENDPOINT together; END overrides ENDPOINT
DROP TABLE IF EXISTS `ORDER_STATUS`;
CREATE TABLE `ORDER_STATUS` (
 `ORDER_STATUS_ID` INTEGER PRIMARY KEY START 0 END "keys(""ORDER_STATUS_ID"")>1" ENDPOINT 3,
 `NAME` CHARACTER(20) NOT NULL GLOBAL "^ORD(100.01,keys(""ORDER_STATUS_ID""),0)" PIECE 1,
 `SHORT_NAME` CHARACTER(4) GLOBAL "^ORD(100.01,keys(""ORDER_STATUS_ID""),0)" PIECE 2,
 `ABBREVIATION` CHARACTER(3) GLOBAL "^ORD(100.01,keys(""ORDER_STATUS_ID""),.1)" EXTRACT "$E($G(^ORD(100.01,keys(""ORDER_STATUS_ID""),.1)),1,245)",
 `MASTER_ENTRY_FOR_VUID` CHARACTER(3) GLOBAL "^ORD(100.01,keys(""ORDER_STATUS_ID""),""VUID"")" PIECE 2,
 `VUID` CHARACTER(20) GLOBAL "^ORD(100.01,keys(""ORDER_STATUS_ID""),""VUID"")" PIECE 1
)
GLOBAL "^ORD(100.01,keys(""ORDER_STATUS_ID""))"
DELIM "^";
SELECT * FROM `ORDER_STATUS`;
ORDER_STATUS_ID|NAME|SHORT_NAME|ABBREVIATION|MASTER_ENTRY_FOR_VUID|VUID
1|DISCONTINUED|dc|dc|1|4500704
(1 row)

Test END and ENDPOINT together; END never happens, ENDPOINT prevails

DROP TABLE IF EXISTS `ORDER_STATUS`;
CREATE TABLE `ORDER_STATUS` (
 `ORDER_STATUS_ID` INTEGER PRIMARY KEY START 0 END "keys(""ORDER_STATUS_ID"")=""""" ENDPOINT 3,
 `NAME` CHARACTER(20) NOT NULL GLOBAL "^ORD(100.01,keys(""ORDER_STATUS_ID""),0)" PIECE 1,
 `SHORT_NAME` CHARACTER(4) GLOBAL "^ORD(100.01,keys(""ORDER_STATUS_ID""),0)" PIECE 2,
 `ABBREVIATION` CHARACTER(3) GLOBAL "^ORD(100.01,keys(""ORDER_STATUS_ID""),.1)" EXTRACT "$E($G(^ORD(100.01,keys(""ORDER_STATUS_ID""),.1)),1,245)",
 `MASTER_ENTRY_FOR_VUID` CHARACTER(3) GLOBAL "^ORD(100.01,keys(""ORDER_STATUS_ID""),""VUID"")" PIECE 2,
 `VUID` CHARACTER(20) GLOBAL "^ORD(100.01,keys(""ORDER_STATUS_ID""),""VUID"")" PIECE 1
)
GLOBAL "^ORD(100.01,keys(""ORDER_STATUS_ID""))"
DELIM "^";
SELECT * FROM `ORDER_STATUS`;
ORDER_STATUS_ID|NAME|SHORT_NAME|ABBREVIATION|MASTER_ENTRY_FOR_VUID|VUID
1|DISCONTINUED|dc|dc|1|4500704
2|COMPLETE|comp|c|1|4501088
3|HOLD|hold|h|1|4500752
(3 rows)
