-- TCT015 : OCTO475 : Multiple usages of the :: (typecast) operator should be accepted
-- This change also allowed multiple array indexes
-- However, Octo doesn't yet implement arrays, so this only checks that it parses, not that it does anything.
select 1[1];
select 1[1][1];
select (1[1])[1];
[ WARN] PATH:LINENUM DATE TIME : ERR_FEATURE_NOT_IMPLEMENTED : Feature not implemented: arrays
???
1
(1 row)
[ WARN] PATH:LINENUM DATE TIME : ERR_FEATURE_NOT_IMPLEMENTED : Feature not implemented: arrays
[ WARN] PATH:LINENUM DATE TIME : ERR_FEATURE_NOT_IMPLEMENTED : Feature not implemented: arrays
???
1
(1 row)
[ WARN] PATH:LINENUM DATE TIME : ERR_FEATURE_NOT_IMPLEMENTED : Feature not implemented: arrays
[ WARN] PATH:LINENUM DATE TIME : ERR_FEATURE_NOT_IMPLEMENTED : Feature not implemented: arrays
???
1
(1 row)
