SELECT nspname AS TABLE_SCHEM, NULL AS TABLE_CATALOG FROM pg_catalog.pg_namespace  WHERE nspname <> 'pg_toast' AND (nspname !~ '^pg_temp_'  OR nspname = (pg_catalog.current_schemas(true))[1]) AND (nspname !~ '^pg_toast_temp_'  OR nspname = replace((pg_catalog.current_schemas(true))[1], 'pg_temp_', 'pg_toast_temp_'))  ORDER BY TABLE_SCHEM]

----- ROCTO/JDBC -----
SQL State: XX000
ERROR: Error with syntax near (line 1, column 339):

----- OCTO -----
[ WARN] PATH:LINENUM DATE TIME : ERR_FEATURE_NOT_IMPLEMENTED : Feature not implemented: arrays
[ WARN] PATH:LINENUM DATE TIME : ERR_FEATURE_NOT_IMPLEMENTED : Feature not implemented: arrays
Error with syntax near (line 1, column 339):

SELECT nspname AS TABLE_SCHEM, NULL AS TABLE_CATALOG FROM pg_catalog.pg_namespace  WHERE nspname <> 'pg_toast' AND (nspname !~ '^pg_temp_'  OR nspname = (pg_catalog.current_schemas(true))[1]) AND (nspname !~ '^pg_toast_temp_'  OR nspname = replace((pg_catalog.current_schemas(true))[1], 'pg_temp_', 'pg_toast_temp_'))  ORDER BY TABLE_SCHEM]
                                                                                                                                                                                                                                                                                                                                                   ^
syntax error, unexpected RIGHT_BRACKET, expecting EXCEPT or UNION or SEMICOLON or ENDOFFILE

[ERROR] PATH:LINENUM DATE TIME : ERR_PARSING_COMMAND : Error parsing statement: SELECT nspname AS TABLE_SCHEM, NULL AS TABLE_CATALOG FROM pg_catalog.pg_namespace  WHERE nspname <> 'pg_toast' AND (nspname !~ '^pg_temp_'  OR nspname = (pg_catalog.current_schemas(true))[1]) AND (nspname !~ '^pg_toast_temp_'  OR nspname = replace((pg_catalog.current_schemas(true))[1], 'pg_temp_', 'pg_toast_temp_'))  ORDER BY TABLE_SCHEM]
