SELECT * FROM ORDER_STATUS;
ORDER_STATUS_ID|NAME|SHORT_NAME|ABBREVIATION|MASTER_ENTRY_FOR_VUID|VUID
1|DISCONTINUED|dc|dc|1|4500704
2|COMPLETE|comp|c|1|4501088
3|HOLD|hold|h|1|4500752
4|FLAGGED|flag|"?"|1|4501095
5|PENDING|pend|p|1|4501114
6|ACTIVE|actv|a|1|4500659
7|EXPIRED|exp|e|1|4500725
8|SCHEDULED|schd|s|1|4501117
9|PARTIAL RESULTS|part|pr|1|4501113
10|DELAYED|dlay|dly|1|4501091
11|UNRELEASED|unr|u|1|4501124
12|DISCONTINUED/EDIT|dc/e|dce|1|4501094
13|CANCELLED|canc|x|1|4501011
14|LAPSED|laps|l|1|4501099
15|RENEWED|rnew|rn|1|4500873
99|NO STATUS|none|'|1|4501102
(16 rows)
