ID|FIRSTNAME|LASTNAME|AGE|DATETIME|ID|FIRSTNAME|LASTNAME|AGE|DATETIME|ID|FIRSTNAME|LASTNAME|AGE|DATETIME|ID|FIRSTNAME|LASTNAME|AGE|DATETIME
(0 rows)
;; This is a generated file; do not modify. Generated M code corresponds to below SQL query
;; ---------------------------------------------------------
;  SELECT * FROM namesWithAges AS t1
;  CROSS JOIN namesWithAges AS t2
;  CROSS JOIN namesWithAges AS t3
;  CROSS JOIN namesWithAges AS t4
;  WHERE t1.age <> -1
;    AND t1.age <> 5
;    AND t1.age = t2.id
;    AND t2.id = t3.id;
;; ---------------------------------------------------------

octoPlan0(cursorId,wrapInTp)
    NEW %ydboctog,%ydboctop,%ydboctoexpr
    TSTART:wrapInTp ():(serial)
    DO octoPlan1(cursorId)
    TCOMMIT:wrapInTp
    QUIT

octoPlan1(cursorId)
    NEW %ydboctoz,%ydboctoexpr KILL %ydboctocursor(cursorId,"keys",6,"","")
    SET %ydboctocursor(cursorId,"keys",1,"NAMESWITHAGES","ID")=""
    FOR  SET %ydboctocursor(cursorId,"keys",1,"NAMESWITHAGES","ID")=$ORDER(^names(%ydboctocursor(cursorId,"keys",1,"NAMESWITHAGES","ID"))) QUIT:(%ydboctocursor(cursorId,"keys",1,"NAMESWITHAGES","ID")="")  DO
    . SET %ydboctoexpr=$PIECE($GET(^names(%ydboctocursor(cursorId,"keys",1,"NAMESWITHAGES","ID"))),"|",3) SET:(""=%ydboctoexpr) %ydboctoexpr=$ZYSQLNULL
    . SET %ydboctocursor(cursorId,"keys",2,"NAMESWITHAGES","ID")=%ydboctoexpr IF '$ZYISSQLNULL(%ydboctocursor(cursorId,"keys",2,"NAMESWITHAGES","ID")) IF $DATA(^names(%ydboctocursor(cursorId,"keys",2,"NAMESWITHAGES","ID"))) DO
    . . SET %ydboctoexpr=%ydboctocursor(cursorId,"keys",2,"NAMESWITHAGES","ID")
    . . SET %ydboctocursor(cursorId,"keys",3,"NAMESWITHAGES","ID")=%ydboctoexpr IF '$ZYISSQLNULL(%ydboctocursor(cursorId,"keys",3,"NAMESWITHAGES","ID")) IF $DATA(^names(%ydboctocursor(cursorId,"keys",3,"NAMESWITHAGES","ID"))) DO
    . . . SET %ydboctocursor(cursorId,"keys",4,"NAMESWITHAGES","ID")=""
    . . . FOR  SET %ydboctocursor(cursorId,"keys",4,"NAMESWITHAGES","ID")=$ORDER(^names(%ydboctocursor(cursorId,"keys",4,"NAMESWITHAGES","ID"))) QUIT:(%ydboctocursor(cursorId,"keys",4,"NAMESWITHAGES","ID")="")  DO
    . . . . SET %ydboctoexpr=1
    . . . . SET %ydboctoexpr=$PIECE($GET(^names(%ydboctocursor(cursorId,"keys",1,"NAMESWITHAGES","ID"))),"|",3) SET:(""=%ydboctoexpr) %ydboctoexpr=$ZYSQLNULL
    . . . . SET %ydboctoexpr(2)=$$ForceNumeric^%ydboctoplanhelpers(%ydboctoexpr)
    . . . . SET %ydboctoexpr=$GET(%ydboctocursor(cursorId,"parameters",1))
    . . . . SET %ydboctoexpr=-%ydboctoexpr
    . . . . SET %ydboctoexpr=$$ForceNumeric^%ydboctoplanhelpers(%ydboctoexpr)
    . . . . SET %ydboctoexpr=%ydboctoexpr(2)'=%ydboctoexpr
    . . . . SET %ydboctoexpr(1)=%ydboctoexpr
    . . . . SET %ydboctoexpr=$PIECE($GET(^names(%ydboctocursor(cursorId,"keys",1,"NAMESWITHAGES","ID"))),"|",3) SET:(""=%ydboctoexpr) %ydboctoexpr=$ZYSQLNULL
    . . . . SET %ydboctoexpr(2)=$$ForceNumeric^%ydboctoplanhelpers(%ydboctoexpr)
    . . . . SET %ydboctoexpr=$GET(%ydboctocursor(cursorId,"parameters",2))
    . . . . SET %ydboctoexpr=$$ForceNumeric^%ydboctoplanhelpers(%ydboctoexpr)
    . . . . SET %ydboctoexpr=%ydboctoexpr(2)'=%ydboctoexpr
    . . . . SET %ydboctoexpr=%ydboctoexpr(1)&%ydboctoexpr
    . . . . IF %ydboctoexpr DO
    . . . . . SET:1&$INCREMENT(%ydboctocursor(cursorId,"keys",6,"","")) %ydboctoz=42
    . . . . . SET %ydboctoexpr=%ydboctocursor(cursorId,"keys",1,"NAMESWITHAGES","ID")
    . . . . . SET %ydboctoexpr=$$str2mval^%ydboctoplanhelpers(%ydboctoexpr)
    . . . . . SET %ydboctoexpr(0)=%ydboctoexpr
    . . . . . SET %ydboctoexpr=$PIECE($GET(^names(%ydboctocursor(cursorId,"keys",1,"NAMESWITHAGES","ID"))),"|",1) SET:(""=%ydboctoexpr) %ydboctoexpr=$ZYSQLNULL
    . . . . . SET %ydboctoexpr=$$str2mval^%ydboctoplanhelpers(%ydboctoexpr)
    . . . . . SET %ydboctoexpr=%ydboctoexpr(0)_%ydboctoexpr
    . . . . . SET %ydboctoexpr(0)=%ydboctoexpr
    . . . . . SET %ydboctoexpr=$PIECE($GET(^names(%ydboctocursor(cursorId,"keys",1,"NAMESWITHAGES","ID"))),"|",2) SET:(""=%ydboctoexpr) %ydboctoexpr=$ZYSQLNULL
    . . . . . SET %ydboctoexpr=$$str2mval^%ydboctoplanhelpers(%ydboctoexpr)
    . . . . . SET %ydboctoexpr=%ydboctoexpr(0)_%ydboctoexpr
    . . . . . SET %ydboctoexpr(0)=%ydboctoexpr
    . . . . . SET %ydboctoexpr=$PIECE($GET(^names(%ydboctocursor(cursorId,"keys",1,"NAMESWITHAGES","ID"))),"|",3) SET:(""=%ydboctoexpr) %ydboctoexpr=$ZYSQLNULL
    . . . . . SET %ydboctoexpr=$$str2mval^%ydboctoplanhelpers(%ydboctoexpr)
    . . . . . SET %ydboctoexpr=%ydboctoexpr(0)_%ydboctoexpr
    . . . . . SET %ydboctoexpr(0)=%ydboctoexpr
    . . . . . SET %ydboctoexpr=$ZDATE($HOROLOG,"YEAR-MM-DD 24:60:SS") SET:(""=%ydboctoexpr) %ydboctoexpr=$ZYSQLNULL
    . . . . . SET %ydboctoexpr=$$str2mval^%ydboctoplanhelpers(%ydboctoexpr)
    . . . . . SET %ydboctoexpr=%ydboctoexpr(0)_%ydboctoexpr
    . . . . . SET %ydboctoexpr(0)=%ydboctoexpr
    . . . . . SET %ydboctoexpr=%ydboctocursor(cursorId,"keys",2,"NAMESWITHAGES","ID")
    . . . . . SET %ydboctoexpr=$$str2mval^%ydboctoplanhelpers(%ydboctoexpr)
    . . . . . SET %ydboctoexpr=%ydboctoexpr(0)_%ydboctoexpr
    . . . . . SET %ydboctoexpr(0)=%ydboctoexpr
    . . . . . SET %ydboctoexpr=$PIECE($GET(^names(%ydboctocursor(cursorId,"keys",2,"NAMESWITHAGES","ID"))),"|",1) SET:(""=%ydboctoexpr) %ydboctoexpr=$ZYSQLNULL
    . . . . . SET %ydboctoexpr=$$str2mval^%ydboctoplanhelpers(%ydboctoexpr)
    . . . . . SET %ydboctoexpr=%ydboctoexpr(0)_%ydboctoexpr
    . . . . . SET %ydboctoexpr(0)=%ydboctoexpr
    . . . . . SET %ydboctoexpr=$PIECE($GET(^names(%ydboctocursor(cursorId,"keys",2,"NAMESWITHAGES","ID"))),"|",2) SET:(""=%ydboctoexpr) %ydboctoexpr=$ZYSQLNULL
    . . . . . SET %ydboctoexpr=$$str2mval^%ydboctoplanhelpers(%ydboctoexpr)
    . . . . . SET %ydboctoexpr=%ydboctoexpr(0)_%ydboctoexpr
    . . . . . SET %ydboctoexpr(0)=%ydboctoexpr
    . . . . . SET %ydboctoexpr=$PIECE($GET(^names(%ydboctocursor(cursorId,"keys",2,"NAMESWITHAGES","ID"))),"|",3) SET:(""=%ydboctoexpr) %ydboctoexpr=$ZYSQLNULL
    . . . . . SET %ydboctoexpr=$$str2mval^%ydboctoplanhelpers(%ydboctoexpr)
    . . . . . SET %ydboctoexpr=%ydboctoexpr(0)_%ydboctoexpr
    . . . . . SET %ydboctoexpr(0)=%ydboctoexpr
    . . . . . SET %ydboctoexpr=$ZDATE($HOROLOG,"YEAR-MM-DD 24:60:SS") SET:(""=%ydboctoexpr) %ydboctoexpr=$ZYSQLNULL
    . . . . . SET %ydboctoexpr=$$str2mval^%ydboctoplanhelpers(%ydboctoexpr)
    . . . . . SET %ydboctoexpr=%ydboctoexpr(0)_%ydboctoexpr
    . . . . . SET %ydboctoexpr(0)=%ydboctoexpr
    . . . . . SET %ydboctoexpr=%ydboctocursor(cursorId,"keys",3,"NAMESWITHAGES","ID")
    . . . . . SET %ydboctoexpr=$$str2mval^%ydboctoplanhelpers(%ydboctoexpr)
    . . . . . SET %ydboctoexpr=%ydboctoexpr(0)_%ydboctoexpr
    . . . . . SET %ydboctoexpr(0)=%ydboctoexpr
    . . . . . SET %ydboctoexpr=$PIECE($GET(^names(%ydboctocursor(cursorId,"keys",3,"NAMESWITHAGES","ID"))),"|",1) SET:(""=%ydboctoexpr) %ydboctoexpr=$ZYSQLNULL
    . . . . . SET %ydboctoexpr=$$str2mval^%ydboctoplanhelpers(%ydboctoexpr)
    . . . . . SET %ydboctoexpr=%ydboctoexpr(0)_%ydboctoexpr
    . . . . . SET %ydboctoexpr(0)=%ydboctoexpr
    . . . . . SET %ydboctoexpr=$PIECE($GET(^names(%ydboctocursor(cursorId,"keys",3,"NAMESWITHAGES","ID"))),"|",2) SET:(""=%ydboctoexpr) %ydboctoexpr=$ZYSQLNULL
    . . . . . SET %ydboctoexpr=$$str2mval^%ydboctoplanhelpers(%ydboctoexpr)
    . . . . . SET %ydboctoexpr=%ydboctoexpr(0)_%ydboctoexpr
    . . . . . SET %ydboctoexpr(0)=%ydboctoexpr
    . . . . . SET %ydboctoexpr=$PIECE($GET(^names(%ydboctocursor(cursorId,"keys",3,"NAMESWITHAGES","ID"))),"|",3) SET:(""=%ydboctoexpr) %ydboctoexpr=$ZYSQLNULL
    . . . . . SET %ydboctoexpr=$$str2mval^%ydboctoplanhelpers(%ydboctoexpr)
    . . . . . SET %ydboctoexpr=%ydboctoexpr(0)_%ydboctoexpr
    . . . . . SET %ydboctoexpr(0)=%ydboctoexpr
    . . . . . SET %ydboctoexpr=$ZDATE($HOROLOG,"YEAR-MM-DD 24:60:SS") SET:(""=%ydboctoexpr) %ydboctoexpr=$ZYSQLNULL
    . . . . . SET %ydboctoexpr=$$str2mval^%ydboctoplanhelpers(%ydboctoexpr)
    . . . . . SET %ydboctoexpr=%ydboctoexpr(0)_%ydboctoexpr
    . . . . . SET %ydboctoexpr(0)=%ydboctoexpr
    . . . . . SET %ydboctoexpr=%ydboctocursor(cursorId,"keys",4,"NAMESWITHAGES","ID")
    . . . . . SET %ydboctoexpr=$$str2mval^%ydboctoplanhelpers(%ydboctoexpr)
    . . . . . SET %ydboctoexpr=%ydboctoexpr(0)_%ydboctoexpr
    . . . . . SET %ydboctoexpr(0)=%ydboctoexpr
    . . . . . SET %ydboctoexpr=$PIECE($GET(^names(%ydboctocursor(cursorId,"keys",4,"NAMESWITHAGES","ID"))),"|",1) SET:(""=%ydboctoexpr) %ydboctoexpr=$ZYSQLNULL
    . . . . . SET %ydboctoexpr=$$str2mval^%ydboctoplanhelpers(%ydboctoexpr)
    . . . . . SET %ydboctoexpr=%ydboctoexpr(0)_%ydboctoexpr
    . . . . . SET %ydboctoexpr(0)=%ydboctoexpr
    . . . . . SET %ydboctoexpr=$PIECE($GET(^names(%ydboctocursor(cursorId,"keys",4,"NAMESWITHAGES","ID"))),"|",2) SET:(""=%ydboctoexpr) %ydboctoexpr=$ZYSQLNULL
    . . . . . SET %ydboctoexpr=$$str2mval^%ydboctoplanhelpers(%ydboctoexpr)
    . . . . . SET %ydboctoexpr=%ydboctoexpr(0)_%ydboctoexpr
    . . . . . SET %ydboctoexpr(0)=%ydboctoexpr
    . . . . . SET %ydboctoexpr=$PIECE($GET(^names(%ydboctocursor(cursorId,"keys",4,"NAMESWITHAGES","ID"))),"|",3) SET:(""=%ydboctoexpr) %ydboctoexpr=$ZYSQLNULL
    . . . . . SET %ydboctoexpr=$$str2mval^%ydboctoplanhelpers(%ydboctoexpr)
    . . . . . SET %ydboctoexpr=%ydboctoexpr(0)_%ydboctoexpr
    . . . . . SET %ydboctoexpr(0)=%ydboctoexpr
    . . . . . SET %ydboctoexpr=$ZDATE($HOROLOG,"YEAR-MM-DD 24:60:SS") SET:(""=%ydboctoexpr) %ydboctoexpr=$ZYSQLNULL
    . . . . . SET %ydboctoexpr=$$str2mval^%ydboctoplanhelpers(%ydboctoexpr)
    . . . . . SET %ydboctoexpr=%ydboctoexpr(0)_%ydboctoexpr
    . . . . . SET %ydboctocursor(cursorId,"keys",6,"","",%ydboctocursor(cursorId,"keys",6,"",""))=%ydboctoexpr
    QUIT
